{
  "schemaVersion": 1,
  "id": "research",
  "version": "${version}",

  "name": "Research",
  "description": "Create 'research' items in Minecraft Fabric, used for quests in modpacks",
  "authors": [
    "BillBodkin"
  ],
  "contact": {
    "homepage": "",
    "sources": ""
  },

  "license": "CC0-1.0",
  "icon": "assets/research/icon.png",

  "environment": "*",
  "entrypoints": {
    "main": [
      "uk.co.cablepost.research.Research"
    ],
    "client": [
      "uk.co.cablepost.research.ResearchClient"
    ]
  },
  "mixins": [
    "research.mixins.json"
  ],

  "depends": {
    "fabricloader": ">=0.14.6",
    "fabric": "*",
    "minecraft": "~1.18.2",
    "java": ">=17",
    "nbtcrafting": "*"
  },
  "suggests": {
  }
}
